com\consumer\controller\MessageRecieverApi.class
com\send\jms\QueueSenderAfterHazelCast.class
com\java\HazelCast\HazelCastCheckValues.class
com\tranformxml\XSLTTranformation.class
com\tranformxml\MyErrorListener.class
